{
    "isFacUp": true,
    "statusList": [
        {
            "ack": false,
            "address": "127.0.0.1:60503",
            "alert": false,
            "failedCount": 0,
            "id": "hub2",
            "isUp": true,
            "page": false
        },
        {
            "ack": false,
            "address": "127.0.0.1:60504",
            "alert": false,
            "failedCount": 0,
            "id": "hub3",
            "isUp": true,
            "page": false
        }
    ]
}
